Ch2: Statistical Learning Labs
…
# Importing .data file:
Auto <- read.table ("Auto.data", header = T, na.strings = "?")
fix(Auto)

# possible alternative:
read_delim("Auto.data", delim = "
           ") #seems more complicated than read.table

## Parsed with column specification:
## cols(
##   `mpg   cylinders   displacement    horsepower weight   acceleration    year    origin  name                        ` = col_character()
## )

## # A tibble: 397 x 1
##    `mpg\tcylinders\tdisplacement\thorsepower weight\tacceleration\tyear\to~
##    <chr>                                                                   
##  1 "18.0   8   307.0      130.0      3504.      12.0   70  1\t\"chevrolet ~
##  2 "15.0   8   350.0      165.0      3693.      11.5   70  1\t\"buick skyl~
##  3 "18.0   8   318.0      150.0      3436.      11.0   70  1\t\"plymouth s~
##  4 "16.0   8   304.0      150.0      3433.      12.0   70  1\t\"amc rebel ~
##  5 "17.0   8   302.0      140.0      3449.      10.5   70  1\t\"ford torin~
##  6 "15.0   8   429.0      198.0      4341.      10.0   70  1\t\"ford galax~
##  7 "14.0   8   454.0      220.0      4354.       9.0   70  1\t\"chevrolet ~
##  8 "14.0   8   440.0      215.0      4312.       8.5   70  1\t\"plymouth f~
##  9 "14.0   8   455.0      225.0      4425.      10.0   70  1\t\"pontiac ca~
## 10 "15.0   8   390.0      190.0      3850.       8.5   70  1\t\"amc ambass~
## # ... with 387 more rows
…
